%YAML 1.1
%TAG !u! tag:unity3d.com,2011:
--- !u!114 &11400000
MonoBehaviour:
  m_ObjectHideFlags: 0
  m_CorrespondingSourceObject: {fileID: 0}
  m_PrefabInternal: {fileID: 0}
  m_GameObject: {fileID: 0}
  m_Enabled: 1
  m_EditorHideFlags: 0
  m_Script: {fileID: 11500000, guid: 504dfb264d2082949ba061ab70935e86, type: 3}
  m_Name: Shape0
  m_EditorClassIdentifier: 
  type: 0
  shape:
  - {x: 47.811764, y: 127}
  - {x: 47.811764, y: 127}
  - {x: 49.30588, y: 127}
  - {x: 49.30588, y: 127}
  - {x: 50.8, y: 127}
  - {x: 50.8, y: 127}
  - {x: 52.294117, y: 127}
  - {x: 52.294117, y: 127}
  - {x: 53.788235, y: 127}
  - {x: 53.788235, y: 127}
  - {x: 55.282352, y: 127}
  - {x: 55.282352, y: 127}
  - {x: 56.77647, y: 127}
  - {x: 56.77647, y: 127}
  - {x: 58.270588, y: 127}
  - {x: 58.270588, y: 127}
  - {x: 59.764706, y: 127}
  - {x: 59.764706, y: 127}
  - {x: 61.258823, y: 127}
  - {x: 61.258823, y: 127}
  - {x: 61.258823, y: 126.37745}
  - {x: 62.75294, y: 126.37745}
  - {x: 62.75294, y: 126.37745}
  - {x: 62.75294, y: 125.754906}
  - {x: 62.75294, y: 125.754906}
  - {x: 64.247055, y: 125.754906}
  - {x: 64.247055, y: 125.754906}
  - {x: 65.74117, y: 125.754906}
  - {x: 65.74117, y: 125.754906}
  - {x: 65.74117, y: 125.132355}
  - {x: 65.74117, y: 125.132355}
  - {x: 67.23529, y: 125.132355}
  - {x: 67.23529, y: 125.132355}
  - {x: 67.23529, y: 124.5098}
  - {x: 67.23529, y: 124.5098}
  - {x: 68.72941, y: 124.5098}
  - {x: 68.72941, y: 124.5098}
  - {x: 68.72941, y: 123.88725}
  - {x: 68.72941, y: 123.88725}
  - {x: 68.72941, y: 123.26471}
  - {x: 70.223526, y: 123.26471}
  - {x: 70.223526, y: 123.26471}
  - {x: 70.223526, y: 122.64216}
  - {x: 70.223526, y: 122.64216}
  - {x: 71.71764, y: 122.64216}
  - {x: 71.71764, y: 122.64216}
  - {x: 71.71764, y: 122.01961}
  - {x: 71.71764, y: 122.01961}
  - {x: 71.71764, y: 121.39706}
  - {x: 71.71764, y: 121.39706}
  - {x: 73.21176, y: 121.39706}
  - {x: 73.21176, y: 121.39706}
  - {x: 73.21176, y: 120.77451}
  - {x: 73.21176, y: 120.77451}
  - {x: 74.70588, y: 120.77451}
  - {x: 74.70588, y: 120.77451}
  - {x: 74.70588, y: 120.15196}
  - {x: 74.70588, y: 120.15196}
  - {x: 74.70588, y: 119.52941}
  - {x: 76.2, y: 119.52941}
  - {x: 76.2, y: 119.52941}
  - {x: 76.2, y: 118.90686}
  - {x: 76.2, y: 118.90686}
  - {x: 76.2, y: 118.28432}
  - {x: 76.2, y: 118.28432}
  - {x: 77.694115, y: 118.28432}
  - {x: 77.694115, y: 118.28432}
  - {x: 77.694115, y: 117.661766}
  - {x: 77.694115, y: 117.661766}
  - {x: 77.694115, y: 117.039215}
  - {x: 77.694115, y: 117.039215}
  - {x: 79.18823, y: 117.039215}
  - {x: 79.18823, y: 117.039215}
  - {x: 79.18823, y: 116.416664}
  - {x: 79.18823, y: 116.416664}
  - {x: 79.18823, y: 115.79412}
  - {x: 79.18823, y: 115.79412}
  - {x: 80.68235, y: 115.79412}
  - {x: 80.68235, y: 115.17157}
  - {x: 80.68235, y: 115.17157}
  - {x: 80.68235, y: 114.54902}
  - {x: 80.68235, y: 114.54902}
  - {x: 80.68235, y: 113.92647}
  - {x: 80.68235, y: 113.92647}
  - {x: 80.68235, y: 113.303925}
  - {x: 80.68235, y: 113.303925}
  - {x: 82.17647, y: 113.303925}
  - {x: 82.17647, y: 113.303925}
  - {x: 82.17647, y: 112.68137}
  - {x: 82.17647, y: 112.68137}
  - {x: 82.17647, y: 112.05882}
  - {x: 82.17647, y: 112.05882}
  - {x: 82.17647, y: 111.43627}
  - {x: 82.17647, y: 111.43627}
  - {x: 83.670586, y: 111.43627}
  - {x: 83.670586, y: 111.43627}
  - {x: 83.670586, y: 110.81373}
  - {x: 83.670586, y: 110.19118}
  - {x: 83.670586, y: 110.19118}
  - {x: 83.670586, y: 109.56863}
  - {x: 83.670586, y: 109.56863}
  - {x: 83.670586, y: 108.946075}
  - {x: 83.670586, y: 108.946075}
  - {x: 85.1647, y: 108.946075}
  - {x: 85.1647, y: 108.946075}
  - {x: 85.1647, y: 108.32353}
  - {x: 85.1647, y: 108.32353}
  - {x: 85.1647, y: 107.70098}
  - {x: 85.1647, y: 107.70098}
  - {x: 85.1647, y: 107.07843}
  - {x: 85.1647, y: 107.07843}
  - {x: 86.65882, y: 107.07843}
  - {x: 86.65882, y: 107.07843}
  - {x: 86.65882, y: 106.45588}
  - {x: 86.65882, y: 106.45588}
  - {x: 86.65882, y: 105.833336}
  - {x: 86.65882, y: 105.210785}
  - {x: 86.65882, y: 105.210785}
  - {x: 86.65882, y: 104.588234}
  - {x: 86.65882, y: 104.588234}
  - {x: 86.65882, y: 103.96568}
  - {x: 86.65882, y: 103.96568}
  - {x: 88.15294, y: 103.96568}
  - {x: 88.15294, y: 103.96568}
  - {x: 88.15294, y: 103.34314}
  - {x: 88.15294, y: 103.34314}
  - {x: 88.15294, y: 102.72059}
  - {x: 88.15294, y: 102.72059}
  - {x: 88.15294, y: 102.09804}
  - {x: 88.15294, y: 102.09804}
  - {x: 88.15294, y: 101.47549}
  - {x: 88.15294, y: 101.47549}
  - {x: 88.15294, y: 100.85294}
  - {x: 88.15294, y: 100.85294}
  - {x: 89.64706, y: 100.85294}
  - {x: 89.64706, y: 100.23039}
  - {x: 89.64706, y: 100.23039}
  - {x: 89.64706, y: 99.60784}
  - {x: 89.64706, y: 99.60784}
  - {x: 89.64706, y: 98.98529}
  - {x: 89.64706, y: 98.98529}
  - {x: 89.64706, y: 98.36275}
  - {x: 89.64706, y: 98.36275}
  - {x: 89.64706, y: 97.7402}
  - {x: 89.64706, y: 97.7402}
  - {x: 89.64706, y: 97.117645}
  - {x: 89.64706, y: 97.117645}
  - {x: 89.64706, y: 96.495094}
  - {x: 89.64706, y: 96.495094}
  - {x: 91.141174, y: 96.495094}
  - {x: 91.141174, y: 96.495094}
  - {x: 91.141174, y: 95.87255}
  - {x: 91.141174, y: 95.87255}
  - {x: 91.141174, y: 95.25}
  - {x: 91.141174, y: 94.62745}
  - {x: 91.141174, y: 94.62745}
  - {x: 91.141174, y: 94.004906}
  - {x: 91.141174, y: 94.004906}
  - {x: 91.141174, y: 93.382355}
  - {x: 91.141174, y: 93.382355}
  - {x: 91.141174, y: 92.7598}
  - {x: 91.141174, y: 92.7598}
  - {x: 91.141174, y: 92.13725}
  - {x: 91.141174, y: 92.13725}
  - {x: 91.141174, y: 91.51471}
  - {x: 91.141174, y: 91.51471}
  - {x: 91.141174, y: 90.89216}
  - {x: 91.141174, y: 90.89216}
  - {x: 91.141174, y: 90.26961}
  - {x: 91.141174, y: 90.26961}
  - {x: 91.141174, y: 89.64706}
  - {x: 91.141174, y: 89.64706}
  - {x: 91.141174, y: 89.02451}
  - {x: 91.141174, y: 89.02451}
  - {x: 91.141174, y: 88.40196}
  - {x: 91.141174, y: 87.77941}
  - {x: 91.141174, y: 87.77941}
  - {x: 91.141174, y: 87.15686}
  - {x: 91.141174, y: 87.15686}
  - {x: 91.141174, y: 86.53432}
  - {x: 91.141174, y: 86.53432}
  - {x: 91.141174, y: 85.911766}
  - {x: 91.141174, y: 85.911766}
  - {x: 91.141174, y: 85.289215}
  - {x: 91.141174, y: 85.289215}
  - {x: 91.141174, y: 84.666664}
  - {x: 91.141174, y: 84.666664}
  - {x: 91.141174, y: 84.04412}
  - {x: 91.141174, y: 84.04412}
  - {x: 91.141174, y: 83.42157}
  - {x: 91.141174, y: 83.42157}
  - {x: 91.141174, y: 82.79902}
  - {x: 91.141174, y: 82.79902}
  - {x: 91.141174, y: 82.17647}
  - {x: 91.141174, y: 81.553925}
  - {x: 91.141174, y: 81.553925}
  - {x: 91.141174, y: 80.93137}
  - {x: 91.141174, y: 80.93137}
  - {x: 91.141174, y: 80.30882}
  - {x: 91.141174, y: 80.30882}
  - {x: 91.141174, y: 79.68627}
  - {x: 91.141174, y: 79.68627}
  - {x: 91.141174, y: 79.06373}
  - {x: 91.141174, y: 79.06373}
  - {x: 91.141174, y: 78.44118}
  - {x: 91.141174, y: 78.44118}
  - {x: 91.141174, y: 77.81863}
  - {x: 91.141174, y: 77.81863}
  - {x: 91.141174, y: 77.196075}
  - {x: 91.141174, y: 77.196075}
  - {x: 91.141174, y: 76.57353}
  - {x: 91.141174, y: 76.57353}
  - {x: 91.141174, y: 75.95098}
  - {x: 91.141174, y: 75.32843}
  - {x: 91.141174, y: 75.32843}
  - {x: 91.141174, y: 74.70588}
  - {x: 91.141174, y: 74.70588}
  - {x: 91.141174, y: 74.083336}
  - {x: 91.141174, y: 74.083336}
  - {x: 91.141174, y: 73.460785}
  - {x: 91.141174, y: 73.460785}
  - {x: 91.141174, y: 72.838234}
  - {x: 91.141174, y: 72.838234}
  - {x: 91.141174, y: 72.21568}
  - {x: 91.141174, y: 72.21568}
  - {x: 91.141174, y: 71.59314}
  - {x: 91.141174, y: 71.59314}
  - {x: 91.141174, y: 70.97059}
  - {x: 91.141174, y: 70.97059}
  - {x: 91.141174, y: 70.34804}
  - {x: 91.141174, y: 70.34804}
  - {x: 91.141174, y: 69.72549}
  - {x: 91.141174, y: 69.10294}
  - {x: 91.141174, y: 69.10294}
  - {x: 91.141174, y: 68.48039}
  - {x: 91.141174, y: 68.48039}
  - {x: 91.141174, y: 67.85784}
  - {x: 91.141174, y: 67.85784}
  - {x: 91.141174, y: 67.23529}
  - {x: 91.141174, y: 67.23529}
  - {x: 89.64706, y: 66.61275}
  - {x: 89.64706, y: 66.61275}
  - {x: 89.64706, y: 65.9902}
  - {x: 89.64706, y: 65.9902}
  - {x: 89.64706, y: 65.367645}
  - {x: 89.64706, y: 65.367645}
  - {x: 89.64706, y: 64.745094}
  - {x: 89.64706, y: 64.745094}
  - {x: 89.64706, y: 64.12255}
  - {x: 89.64706, y: 64.12255}
  - {x: 89.64706, y: 63.5}
  - {x: 89.64706, y: 62.877453}
  - {x: 89.64706, y: 62.877453}
  - {x: 88.15294, y: 62.2549}
  - {x: 88.15294, y: 62.2549}
  - {x: 88.15294, y: 61.632355}
  - {x: 88.15294, y: 61.632355}
  - {x: 88.15294, y: 61.009804}
  - {x: 88.15294, y: 61.009804}
  - {x: 88.15294, y: 60.387257}
  - {x: 88.15294, y: 60.387257}
  - {x: 88.15294, y: 59.764706}
  - {x: 88.15294, y: 59.764706}
  - {x: 86.65882, y: 59.14216}
  - {x: 86.65882, y: 59.14216}
  - {x: 86.65882, y: 58.519608}
  - {x: 86.65882, y: 58.519608}
  - {x: 86.65882, y: 57.89706}
  - {x: 86.65882, y: 57.89706}
  - {x: 86.65882, y: 57.27451}
  - {x: 86.65882, y: 56.651962}
  - {x: 86.65882, y: 56.651962}
  - {x: 85.1647, y: 56.02941}
  - {x: 85.1647, y: 56.02941}
  - {x: 85.1647, y: 55.406864}
  - {x: 85.1647, y: 55.406864}
  - {x: 85.1647, y: 54.784313}
  - {x: 85.1647, y: 54.784313}
  - {x: 83.670586, y: 54.161766}
  - {x: 83.670586, y: 54.161766}
  - {x: 83.670586, y: 53.539215}
  - {x: 83.670586, y: 53.539215}
  - {x: 83.670586, y: 52.916668}
  - {x: 83.670586, y: 52.916668}
  - {x: 83.670586, y: 52.294117}
  - {x: 83.670586, y: 52.294117}
  - {x: 82.17647, y: 51.67157}
  - {x: 82.17647, y: 51.67157}
  - {x: 82.17647, y: 51.04902}
  - {x: 82.17647, y: 50.42647}
  - {x: 82.17647, y: 50.42647}
  - {x: 80.68235, y: 49.80392}
  - {x: 80.68235, y: 49.80392}
  - {x: 80.68235, y: 49.181374}
  - {x: 80.68235, y: 49.181374}
  - {x: 80.68235, y: 48.558823}
  - {x: 80.68235, y: 48.558823}
  - {x: 80.68235, y: 47.936275}
  - {x: 80.68235, y: 47.936275}
  - {x: 79.18823, y: 47.313725}
  - {x: 79.18823, y: 47.313725}
  - {x: 79.18823, y: 46.691177}
  - {x: 79.18823, y: 46.691177}
  - {x: 79.18823, y: 46.068626}
  - {x: 79.18823, y: 46.068626}
  - {x: 79.18823, y: 45.44608}
  - {x: 79.18823, y: 45.44608}
  - {x: 80.68235, y: 45.44608}
  - {x: 82.17647, y: 45.44608}
  - {x: 82.17647, y: 45.44608}
  - {x: 83.670586, y: 45.44608}
  - {x: 83.670586, y: 45.44608}
  - {x: 85.1647, y: 45.44608}
  - {x: 85.1647, y: 45.44608}
  - {x: 85.1647, y: 44.82353}
  - {x: 85.1647, y: 44.82353}
  - {x: 86.65882, y: 44.82353}
  - {x: 86.65882, y: 44.82353}
  - {x: 88.15294, y: 44.82353}
  - {x: 88.15294, y: 44.82353}
  - {x: 89.64706, y: 44.82353}
  - {x: 89.64706, y: 44.82353}
  - {x: 89.64706, y: 44.20098}
  - {x: 89.64706, y: 44.20098}
  - {x: 91.141174, y: 44.20098}
  - {x: 91.141174, y: 44.20098}
  - {x: 92.63529, y: 44.20098}
  - {x: 92.63529, y: 43.57843}
  - {x: 92.63529, y: 43.57843}
  - {x: 94.12941, y: 43.57843}
  - {x: 94.12941, y: 43.57843}
  - {x: 95.62353, y: 43.57843}
  - {x: 95.62353, y: 43.57843}
  - {x: 95.62353, y: 42.955883}
  - {x: 95.62353, y: 42.955883}
  - {x: 97.117645, y: 42.955883}
  - {x: 97.117645, y: 42.955883}
  - {x: 98.61176, y: 42.955883}
  - {x: 98.61176, y: 42.955883}
  - {x: 100.10588, y: 42.955883}
  - {x: 100.10588, y: 42.955883}
  - {x: 100.10588, y: 42.333332}
  - {x: 100.10588, y: 42.333332}
  - {x: 101.6, y: 42.333332}
  - {x: 101.6, y: 42.333332}
  - {x: 101.6, y: 41.710785}
  - {x: 101.6, y: 41.710785}
  - {x: 103.09412, y: 41.710785}
  - {x: 103.09412, y: 41.088234}
  - {x: 103.09412, y: 41.088234}
  - {x: 104.588234, y: 41.088234}
  - {x: 104.588234, y: 41.088234}
  - {x: 104.588234, y: 40.465687}
  - {x: 104.588234, y: 40.465687}
  - {x: 106.08235, y: 40.465687}
  - {x: 106.08235, y: 40.465687}
  - {x: 106.08235, y: 39.843136}
  - {x: 106.08235, y: 39.843136}
  - {x: 107.57647, y: 39.843136}
  - {x: 107.57647, y: 39.843136}
  - {x: 107.57647, y: 39.22059}
  - {x: 107.57647, y: 39.22059}
  - {x: 107.57647, y: 38.598038}
  - {x: 107.57647, y: 38.598038}
  - {x: 109.07059, y: 38.598038}
  - {x: 109.07059, y: 38.598038}
  - {x: 109.07059, y: 37.97549}
  - {x: 110.564705, y: 37.97549}
  - {x: 110.564705, y: 37.97549}
  - {x: 110.564705, y: 37.35294}
  - {x: 110.564705, y: 37.35294}
  - {x: 110.564705, y: 36.730392}
  - {x: 110.564705, y: 36.730392}
  - {x: 112.05882, y: 36.730392}
  - {x: 112.05882, y: 36.730392}
  - {x: 112.05882, y: 36.10784}
  - {x: 112.05882, y: 36.10784}
  - {x: 113.55294, y: 36.10784}
  - {x: 113.55294, y: 36.10784}
  - {x: 113.55294, y: 35.485294}
  - {x: 113.55294, y: 35.485294}
  - {x: 113.55294, y: 34.862743}
  - {x: 113.55294, y: 34.862743}
  - {x: 115.04706, y: 34.862743}
  - {x: 115.04706, y: 34.862743}
  - {x: 115.04706, y: 34.240196}
  - {x: 116.541176, y: 34.240196}
  - {x: 116.541176, y: 34.240196}
  - {x: 116.541176, y: 33.617645}
  - {x: 116.541176, y: 33.617645}
  - {x: 116.541176, y: 32.9951}
  - {x: 116.541176, y: 32.9951}
  - {x: 118.03529, y: 32.9951}
  - {x: 118.03529, y: 32.9951}
  - {x: 118.03529, y: 32.372547}
  - {x: 118.03529, y: 32.372547}
  - {x: 118.03529, y: 31.75}
  - {x: 118.03529, y: 31.75}
  - {x: 119.52941, y: 31.75}
  - {x: 119.52941, y: 31.75}
  - {x: 119.52941, y: 31.12745}
  - {x: 119.52941, y: 31.12745}
  - {x: 121.02353, y: 31.12745}
  - {x: 121.02353, y: 31.12745}
  - {x: 121.02353, y: 30.504902}
  - {x: 122.51765, y: 30.504902}
  - {x: 122.51765, y: 30.504902}
  - {x: 124.011765, y: 30.504902}
  - {x: 124.011765, y: 30.504902}
  - {x: 124.011765, y: 29.882353}
  - {x: 124.011765, y: 29.882353}
  - {x: 124.011765, y: 29.259804}
  - {x: 124.011765, y: 29.259804}
  - {x: 125.50588, y: 29.259804}
  - {x: 125.50588, y: 29.259804}
  - {x: 125.50588, y: 28.637255}
  - {x: 125.50588, y: 28.637255}
  - {x: 127, y: 28.637255}
  - {x: 127, y: 28.637255}
  - {x: 127, y: 28.014706}
  - {x: 127, y: 28.014706}
  - {x: 127, y: 27.392157}
  - {x: 127, y: 27.392157}
  - {x: 127, y: 26.769608}
  - {x: 127, y: 26.147058}
  - {x: 127, y: 26.147058}
  - {x: 127, y: 25.52451}
  - {x: 127, y: 25.52451}
  - {x: 127, y: 24.90196}
  - {x: 127, y: 24.90196}
  - {x: 127, y: 24.279411}
  - {x: 127, y: 24.279411}
  - {x: 127, y: 23.656862}
  - {x: 127, y: 23.656862}
  - {x: 127, y: 23.034313}
  - {x: 127, y: 23.034313}
  - {x: 127, y: 22.411764}
  - {x: 127, y: 22.411764}
  - {x: 127, y: 21.789215}
  - {x: 127, y: 21.789215}
  - {x: 127, y: 21.166666}
  - {x: 127, y: 21.166666}
  - {x: 127, y: 20.544117}
  - {x: 127, y: 19.921568}
  - {x: 127, y: 19.921568}
  - {x: 127, y: 19.299019}
  - {x: 127, y: 19.299019}
  - {x: 127, y: 18.67647}
  - {x: 127, y: 18.67647}
  - {x: 127, y: 18.05392}
  - {x: 127, y: 18.05392}
  - {x: 127, y: 17.431372}
  - {x: 127, y: 17.431372}
  - {x: 127, y: 16.808823}
  - {x: 127, y: 16.808823}
  - {x: 127, y: 16.186274}
  - {x: 127, y: 16.186274}
  - {x: 127, y: 15.563725}
  - {x: 127, y: 15.563725}
  - {x: 127, y: 14.941176}
  - {x: 127, y: 14.941176}
  - {x: 127, y: 14.318627}
  - {x: 127, y: 13.696078}
  - {x: 127, y: 13.696078}
  - {x: 127, y: 13.073529}
  - {x: 127, y: 13.073529}
  - {x: 127, y: 12.45098}
  - {x: 127, y: 12.45098}
  - {x: 127, y: 11.828431}
  - {x: 127, y: 11.828431}
  - {x: 127, y: 11.205882}
  - {x: 127, y: 11.205882}
  - {x: 127, y: 10.583333}
  - {x: 127, y: 10.583333}
  - {x: 127, y: 9.960784}
  - {x: 127, y: 9.960784}
  - {x: 127, y: 9.338235}
  - {x: 127, y: 9.338235}
  - {x: 127, y: 8.715686}
  - {x: 127, y: 8.715686}
  - {x: 127, y: 8.093137}
  - {x: 127, y: 7.470588}
  - {x: 127, y: 7.470588}
  - {x: 127, y: 6.848039}
  - {x: 127, y: 6.848039}
  - {x: 127, y: 6.22549}
  - {x: 127, y: 6.22549}
  - {x: 127, y: 5.602941}
  - {x: 127, y: 5.602941}
  - {x: 127, y: 4.980392}
  - {x: 127, y: 4.980392}
  - {x: 127, y: 4.357843}
  - {x: 127, y: 4.357843}
  - {x: 127, y: 3.735294}
  - {x: 127, y: 3.735294}
  - {x: 125.50588, y: 4.357843}
  - {x: 125.50588, y: 4.357843}
  - {x: 124.011765, y: 4.980392}
  - {x: 124.011765, y: 4.980392}
  - {x: 122.51765, y: 4.980392}
  - {x: 121.02353, y: 4.980392}
  - {x: 121.02353, y: 4.980392}
  - {x: 119.52941, y: 4.357843}
  - {x: 119.52941, y: 4.357843}
  - {x: 119.52941, y: 3.735294}
  - {x: 119.52941, y: 3.735294}
  - {x: 118.03529, y: 3.735294}
  - {x: 118.03529, y: 3.735294}
  - {x: 116.541176, y: 3.112745}
  - {x: 116.541176, y: 3.112745}
  - {x: 115.04706, y: 2.490196}
  - {x: 115.04706, y: 2.490196}
  - {x: 113.55294, y: 2.490196}
  - {x: 113.55294, y: 2.490196}
  - {x: 112.05882, y: 1.867647}
  - {x: 112.05882, y: 1.867647}
  - {x: 110.564705, y: 1.867647}
  - {x: 110.564705, y: 1.867647}
  - {x: 109.07059, y: 1.867647}
  - {x: 109.07059, y: 1.867647}
  - {x: 107.57647, y: 1.867647}
  - {x: 106.08235, y: 1.867647}
  - {x: 106.08235, y: 1.867647}
  - {x: 104.588234, y: 1.867647}
  - {x: 104.588234, y: 1.867647}
  - {x: 103.09412, y: 1.245098}
  - {x: 103.09412, y: 1.245098}
  - {x: 101.6, y: 1.245098}
  - {x: 101.6, y: 1.245098}
  - {x: 100.10588, y: 1.245098}
  - {x: 100.10588, y: 1.245098}
  - {x: 98.61176, y: 1.245098}
  - {x: 98.61176, y: 1.245098}
  - {x: 97.117645, y: 0.622549}
  - {x: 97.117645, y: 0.622549}
  - {x: 95.62353, y: 0}
  - {x: 95.62353, y: 0}
  - {x: 94.12941, y: 0}
  - {x: 94.12941, y: 0}
  - {x: 92.63529, y: 0}
  - {x: 91.141174, y: 0.622549}
  - {x: 91.141174, y: 0.622549}
  - {x: 89.64706, y: 1.245098}
  - {x: 89.64706, y: 1.245098}
  - {x: 88.15294, y: 1.867647}
  - {x: 88.15294, y: 1.867647}
  - {x: 86.65882, y: 1.867647}
  - {x: 86.65882, y: 1.867647}
  - {x: 85.1647, y: 2.490196}
  - {x: 85.1647, y: 2.490196}
  - {x: 85.1647, y: 3.112745}
  - {x: 85.1647, y: 3.112745}
  - {x: 83.670586, y: 3.735294}
  - {x: 83.670586, y: 3.735294}
  - {x: 82.17647, y: 3.735294}
  - {x: 82.17647, y: 3.735294}
  - {x: 80.68235, y: 4.357843}
  - {x: 80.68235, y: 4.357843}
  - {x: 79.18823, y: 4.980392}
  - {x: 77.694115, y: 4.980392}
  - {x: 77.694115, y: 4.980392}
  - {x: 76.2, y: 5.602941}
  - {x: 76.2, y: 5.602941}
  - {x: 74.70588, y: 6.22549}
  - {x: 74.70588, y: 6.22549}
  - {x: 73.21176, y: 6.848039}
  - {x: 73.21176, y: 6.848039}
  - {x: 71.71764, y: 6.848039}
  - {x: 71.71764, y: 6.848039}
  - {x: 70.223526, y: 6.22549}
  - {x: 70.223526, y: 6.22549}
  - {x: 70.223526, y: 5.602941}
  - {x: 70.223526, y: 5.602941}
  - {x: 70.223526, y: 4.980392}
  - {x: 70.223526, y: 4.980392}
  - {x: 68.72941, y: 5.602941}
  - {x: 68.72941, y: 5.602941}
  - {x: 67.23529, y: 5.602941}
  - {x: 65.74117, y: 4.980392}
  - {x: 65.74117, y: 4.980392}
  - {x: 64.247055, y: 4.357843}
  - {x: 64.247055, y: 4.357843}
  - {x: 64.247055, y: 3.735294}
  - {x: 64.247055, y: 3.735294}
  - {x: 62.75294, y: 3.112745}
  - {x: 62.75294, y: 3.112745}
  - {x: 61.258823, y: 3.112745}
  - {x: 61.258823, y: 3.112745}
  - {x: 59.764706, y: 2.490196}
  - {x: 59.764706, y: 2.490196}
  - {x: 58.270588, y: 3.112745}
  - {x: 58.270588, y: 3.112745}
  - {x: 56.77647, y: 3.112745}
  - {x: 56.77647, y: 3.112745}
  - {x: 55.282352, y: 3.735294}
  - {x: 55.282352, y: 3.735294}
  - {x: 53.788235, y: 4.357843}
  - {x: 52.294117, y: 4.980392}
  - {x: 52.294117, y: 4.980392}
  - {x: 50.8, y: 5.602941}
  - {x: 50.8, y: 5.602941}
  - {x: 50.8, y: 6.22549}
  - {x: 50.8, y: 6.22549}
  - {x: 49.30588, y: 6.848039}
  - {x: 49.30588, y: 6.848039}
  - {x: 49.30588, y: 7.470588}
  - {x: 49.30588, y: 7.470588}
  - {x: 47.811764, y: 8.093137}
  - {x: 47.811764, y: 8.093137}
  - {x: 46.317646, y: 8.715686}
  - {x: 46.317646, y: 8.715686}
  - {x: 44.82353, y: 9.338235}
  - {x: 44.82353, y: 9.338235}
  - {x: 43.32941, y: 9.960784}
  - {x: 43.32941, y: 9.960784}
  - {x: 41.835293, y: 9.960784}
  - {x: 40.341175, y: 10.583333}
  - {x: 40.341175, y: 10.583333}
  - {x: 38.847057, y: 10.583333}
  - {x: 38.847057, y: 10.583333}
  - {x: 38.847057, y: 11.205882}
  - {x: 38.847057, y: 11.205882}
  - {x: 37.35294, y: 11.828431}
  - {x: 37.35294, y: 11.828431}
  - {x: 37.35294, y: 12.45098}
  - {x: 37.35294, y: 12.45098}
  - {x: 35.85882, y: 13.073529}
  - {x: 35.85882, y: 13.073529}
  - {x: 35.85882, y: 13.696078}
  - {x: 35.85882, y: 13.696078}
  - {x: 34.364704, y: 14.318627}
  - {x: 34.364704, y: 14.318627}
  - {x: 34.364704, y: 14.941176}
  - {x: 34.364704, y: 14.941176}
  - {x: 34.364704, y: 15.563725}
  - {x: 32.870586, y: 16.186274}
  - {x: 32.870586, y: 16.186274}
  - {x: 31.37647, y: 16.808823}
  - {x: 31.37647, y: 16.808823}
  - {x: 29.882353, y: 17.431372}
  - {x: 29.882353, y: 17.431372}
  - {x: 28.388235, y: 18.05392}
  - {x: 28.388235, y: 18.05392}
  - {x: 28.388235, y: 18.67647}
  - {x: 28.388235, y: 18.67647}
  - {x: 26.894117, y: 19.299019}
  - {x: 26.894117, y: 19.299019}
  - {x: 25.4, y: 19.299019}
  - {x: 25.4, y: 19.299019}
  - {x: 26.894117, y: 19.921568}
  - {x: 26.894117, y: 19.921568}
  - {x: 26.894117, y: 20.544117}
  - {x: 26.894117, y: 20.544117}
  - {x: 25.4, y: 21.166666}
  - {x: 23.905882, y: 21.789215}
  - {x: 23.905882, y: 21.789215}
  - {x: 22.411764, y: 22.411764}
  - {x: 22.411764, y: 22.411764}
  - {x: 20.917646, y: 23.034313}
  - {x: 20.917646, y: 23.034313}
  - {x: 19.423529, y: 23.656862}
  - {x: 19.423529, y: 23.656862}
  - {x: 19.423529, y: 24.279411}
  - {x: 19.423529, y: 24.279411}
  - {x: 17.92941, y: 24.90196}
  - {x: 17.92941, y: 24.90196}
  - {x: 16.435293, y: 25.52451}
  - {x: 16.435293, y: 25.52451}
  - {x: 16.435293, y: 26.147058}
  - {x: 16.435293, y: 26.147058}
  - {x: 14.941176, y: 26.769608}
  - {x: 14.941176, y: 26.769608}
  - {x: 13.447059, y: 27.392157}
  - {x: 13.447059, y: 27.392157}
  - {x: 13.447059, y: 28.014706}
  - {x: 11.952941, y: 28.637255}
  - {x: 11.952941, y: 28.637255}
  - {x: 10.458823, y: 29.259804}
  - {x: 10.458823, y: 29.259804}
  - {x: 8.964705, y: 29.882353}
  - {x: 8.964705, y: 29.882353}
  - {x: 7.470588, y: 30.504902}
  - {x: 7.470588, y: 30.504902}
  - {x: 5.9764705, y: 31.12745}
  - {x: 5.9764705, y: 31.12745}
  - {x: 5.9764705, y: 31.75}
  - {x: 5.9764705, y: 31.75}
  - {x: 4.4823527, y: 32.372547}
  - {x: 4.4823527, y: 32.372547}
  - {x: 4.4823527, y: 32.9951}
  - {x: 4.4823527, y: 32.9951}
  - {x: 2.9882352, y: 33.617645}
  - {x: 2.9882352, y: 33.617645}
  - {x: 1.4941176, y: 34.240196}
  - {x: 1.4941176, y: 34.862743}
  - {x: 1.4941176, y: 34.862743}
  - {x: 0, y: 35.485294}
  - {x: 0, y: 35.485294}
  - {x: 0, y: 36.10784}
  - {x: 0, y: 36.10784}
  - {x: 0, y: 36.730392}
  - {x: 0, y: 36.730392}
  - {x: 0, y: 37.35294}
  - {x: 0, y: 37.35294}
  - {x: 1.4941176, y: 37.97549}
  - {x: 1.4941176, y: 37.97549}
  - {x: 2.9882352, y: 38.598038}
  - {x: 2.9882352, y: 38.598038}
  - {x: 4.4823527, y: 39.22059}
  - {x: 4.4823527, y: 39.22059}
  - {x: 4.4823527, y: 39.843136}
  - {x: 4.4823527, y: 39.843136}
  - {x: 4.4823527, y: 40.465687}
  - {x: 5.9764705, y: 41.088234}
  - {x: 5.9764705, y: 41.088234}
  - {x: 7.470588, y: 41.710785}
  - {x: 7.470588, y: 41.710785}
  - {x: 8.964705, y: 42.333332}
  - {x: 8.964705, y: 42.333332}
  - {x: 10.458823, y: 42.333332}
  - {x: 10.458823, y: 42.333332}
  - {x: 11.952941, y: 42.955883}
  - {x: 11.952941, y: 42.955883}
  - {x: 13.447059, y: 42.955883}
  - {x: 13.447059, y: 42.955883}
  - {x: 14.941176, y: 43.57843}
  - {x: 14.941176, y: 43.57843}
  - {x: 16.435293, y: 43.57843}
  - {x: 16.435293, y: 43.57843}
  - {x: 17.92941, y: 44.20098}
  - {x: 17.92941, y: 44.20098}
  - {x: 19.423529, y: 44.20098}
  - {x: 20.917646, y: 44.20098}
  - {x: 20.917646, y: 44.20098}
  - {x: 22.411764, y: 44.82353}
  - {x: 22.411764, y: 44.82353}
  - {x: 23.905882, y: 44.82353}
  - {x: 23.905882, y: 44.82353}
  - {x: 25.4, y: 44.82353}
  - {x: 25.4, y: 44.82353}
  - {x: 26.894117, y: 45.44608}
  - {x: 26.894117, y: 45.44608}
  - {x: 28.388235, y: 45.44608}
  - {x: 28.388235, y: 45.44608}
  - {x: 29.882353, y: 45.44608}
  - {x: 29.882353, y: 45.44608}
  - {x: 31.37647, y: 45.44608}
  - {x: 31.37647, y: 45.44608}
  - {x: 32.870586, y: 46.068626}
  - {x: 32.870586, y: 46.068626}
  - {x: 32.870586, y: 46.691177}
  - {x: 31.37647, y: 47.313725}
  - {x: 31.37647, y: 47.313725}
  - {x: 29.882353, y: 47.936275}
  - {x: 29.882353, y: 47.936275}
  - {x: 29.882353, y: 48.558823}
  - {x: 29.882353, y: 48.558823}
  - {x: 29.882353, y: 49.181374}
  - {x: 29.882353, y: 49.181374}
  - {x: 28.388235, y: 49.80392}
  - {x: 28.388235, y: 49.80392}
  - {x: 28.388235, y: 50.42647}
  - {x: 28.388235, y: 50.42647}
  - {x: 26.894117, y: 51.04902}
  - {x: 26.894117, y: 51.04902}
  - {x: 26.894117, y: 51.67157}
  - {x: 26.894117, y: 51.67157}
  - {x: 26.894117, y: 52.294117}
  - {x: 26.894117, y: 52.294117}
  - {x: 25.4, y: 52.916668}
  - {x: 25.4, y: 53.539215}
  - {x: 25.4, y: 53.539215}
  - {x: 25.4, y: 54.161766}
  - {x: 25.4, y: 54.161766}
  - {x: 25.4, y: 54.784313}
  - {x: 25.4, y: 54.784313}
  - {x: 25.4, y: 55.406864}
  - {x: 25.4, y: 55.406864}
  - {x: 25.4, y: 56.02941}
  - {x: 25.4, y: 56.02941}
  - {x: 23.905882, y: 56.651962}
  - {x: 23.905882, y: 56.651962}
  - {x: 23.905882, y: 57.27451}
  - {x: 23.905882, y: 57.27451}
  - {x: 23.905882, y: 57.89706}
  - {x: 23.905882, y: 57.89706}
  - {x: 23.905882, y: 58.519608}
  - {x: 23.905882, y: 58.519608}
  - {x: 22.411764, y: 59.14216}
  - {x: 22.411764, y: 59.764706}
  - {x: 22.411764, y: 59.764706}
  - {x: 20.917646, y: 60.387257}
  - {x: 20.917646, y: 60.387257}
  - {x: 22.411764, y: 61.009804}
  - {x: 22.411764, y: 61.009804}
  - {x: 22.411764, y: 61.632355}
  - {x: 22.411764, y: 61.632355}
  - {x: 22.411764, y: 62.2549}
  - {x: 22.411764, y: 62.2549}
  - {x: 20.917646, y: 62.877453}
  - {x: 20.917646, y: 62.877453}
  - {x: 20.917646, y: 63.5}
  - {x: 20.917646, y: 63.5}
  - {x: 20.917646, y: 64.12255}
  - {x: 20.917646, y: 64.12255}
  - {x: 20.917646, y: 64.745094}
  - {x: 20.917646, y: 64.745094}
  - {x: 20.917646, y: 65.367645}
  - {x: 20.917646, y: 65.9902}
  - {x: 20.917646, y: 65.9902}
  - {x: 19.423529, y: 66.61275}
  - {x: 19.423529, y: 66.61275}
  - {x: 17.92941, y: 66.61275}
  - {x: 17.92941, y: 66.61275}
  - {x: 19.423529, y: 67.23529}
  - {x: 19.423529, y: 67.23529}
  - {x: 19.423529, y: 67.85784}
  - {x: 19.423529, y: 67.85784}
  - {x: 19.423529, y: 68.48039}
  - {x: 19.423529, y: 68.48039}
  - {x: 19.423529, y: 69.10294}
  - {x: 19.423529, y: 69.10294}
  - {x: 19.423529, y: 69.72549}
  - {x: 19.423529, y: 69.72549}
  - {x: 19.423529, y: 70.34804}
  - {x: 19.423529, y: 70.34804}
  - {x: 19.423529, y: 70.97059}
  - {x: 19.423529, y: 71.59314}
  - {x: 19.423529, y: 71.59314}
  - {x: 17.92941, y: 72.21568}
  - {x: 17.92941, y: 72.21568}
  - {x: 17.92941, y: 72.838234}
  - {x: 17.92941, y: 72.838234}
  - {x: 17.92941, y: 73.460785}
  - {x: 17.92941, y: 73.460785}
  - {x: 17.92941, y: 74.083336}
  - {x: 17.92941, y: 74.083336}
  - {x: 17.92941, y: 74.70588}
  - {x: 17.92941, y: 74.70588}
  - {x: 17.92941, y: 75.32843}
  - {x: 17.92941, y: 75.32843}
  - {x: 17.92941, y: 75.95098}
  - {x: 17.92941, y: 75.95098}
  - {x: 17.92941, y: 76.57353}
  - {x: 17.92941, y: 76.57353}
  - {x: 17.92941, y: 77.196075}
  - {x: 17.92941, y: 77.196075}
  - {x: 17.92941, y: 77.81863}
  - {x: 17.92941, y: 78.44118}
  - {x: 17.92941, y: 78.44118}
  - {x: 16.435293, y: 79.06373}
  - {x: 16.435293, y: 79.06373}
  - {x: 17.92941, y: 79.68627}
  - {x: 17.92941, y: 79.68627}
  - {x: 17.92941, y: 80.30882}
  - {x: 17.92941, y: 80.30882}
  - {x: 17.92941, y: 80.93137}
  - {x: 17.92941, y: 80.93137}
  - {x: 17.92941, y: 81.553925}
  - {x: 17.92941, y: 81.553925}
  - {x: 17.92941, y: 82.17647}
  - {x: 17.92941, y: 82.17647}
  - {x: 17.92941, y: 82.79902}
  - {x: 17.92941, y: 82.79902}
  - {x: 17.92941, y: 83.42157}
  - {x: 17.92941, y: 83.42157}
  - {x: 16.435293, y: 84.04412}
  - {x: 17.92941, y: 84.666664}
  - {x: 17.92941, y: 84.666664}
  - {x: 17.92941, y: 85.289215}
  - {x: 17.92941, y: 85.289215}
  - {x: 17.92941, y: 85.911766}
  - {x: 17.92941, y: 85.911766}
  - {x: 17.92941, y: 86.53432}
  - {x: 17.92941, y: 86.53432}
  - {x: 17.92941, y: 87.15686}
  - {x: 17.92941, y: 87.15686}
  - {x: 17.92941, y: 87.77941}
  - {x: 17.92941, y: 87.77941}
  - {x: 17.92941, y: 88.40196}
  - {x: 17.92941, y: 88.40196}
  - {x: 17.92941, y: 89.02451}
  - {x: 17.92941, y: 89.02451}
  - {x: 17.92941, y: 89.64706}
  - {x: 17.92941, y: 89.64706}
  - {x: 17.92941, y: 90.26961}
  - {x: 17.92941, y: 90.89216}
  - {x: 17.92941, y: 90.89216}
  - {x: 17.92941, y: 91.51471}
  - {x: 17.92941, y: 91.51471}
  - {x: 19.423529, y: 92.13725}
  - {x: 19.423529, y: 92.13725}
  - {x: 19.423529, y: 92.7598}
  - {x: 19.423529, y: 92.7598}
  - {x: 19.423529, y: 93.382355}
  - {x: 19.423529, y: 93.382355}
  - {x: 19.423529, y: 94.004906}
  - {x: 19.423529, y: 94.004906}
  - {x: 19.423529, y: 94.62745}
  - {x: 19.423529, y: 94.62745}
  - {x: 19.423529, y: 95.25}
  - {x: 19.423529, y: 95.25}
  - {x: 19.423529, y: 95.87255}
  - {x: 19.423529, y: 95.87255}
  - {x: 19.423529, y: 96.495094}
  - {x: 19.423529, y: 97.117645}
  - {x: 19.423529, y: 97.117645}
  - {x: 19.423529, y: 97.7402}
  - {x: 19.423529, y: 97.7402}
  - {x: 20.917646, y: 98.36275}
  - {x: 20.917646, y: 98.36275}
  - {x: 20.917646, y: 98.98529}
  - {x: 20.917646, y: 98.98529}
  - {x: 20.917646, y: 99.60784}
  - {x: 20.917646, y: 99.60784}
  - {x: 20.917646, y: 100.23039}
  - {x: 20.917646, y: 100.23039}
  - {x: 20.917646, y: 100.85294}
  - {x: 20.917646, y: 100.85294}
  - {x: 20.917646, y: 101.47549}
  - {x: 20.917646, y: 101.47549}
  - {x: 22.411764, y: 102.09804}
  - {x: 22.411764, y: 102.09804}
  - {x: 22.411764, y: 102.72059}
  - {x: 22.411764, y: 103.34314}
  - {x: 22.411764, y: 103.34314}
  - {x: 22.411764, y: 103.96568}
  - {x: 22.411764, y: 103.96568}
  - {x: 22.411764, y: 104.588234}
  - {x: 22.411764, y: 104.588234}
  - {x: 23.905882, y: 105.210785}
  - {x: 23.905882, y: 105.210785}
  - {x: 23.905882, y: 105.833336}
  - {x: 23.905882, y: 105.833336}
  - {x: 23.905882, y: 106.45588}
  - {x: 23.905882, y: 106.45588}
  - {x: 23.905882, y: 107.07843}
  - {x: 23.905882, y: 107.07843}
  - {x: 25.4, y: 107.70098}
  - {x: 25.4, y: 107.70098}
  - {x: 25.4, y: 108.32353}
  - {x: 25.4, y: 108.32353}
  - {x: 25.4, y: 108.946075}
  - {x: 25.4, y: 109.56863}
  - {x: 25.4, y: 109.56863}
  - {x: 25.4, y: 110.19118}
  - {x: 25.4, y: 110.19118}
  - {x: 25.4, y: 110.81373}
  - {x: 25.4, y: 110.81373}
  - {x: 26.894117, y: 111.43627}
  - {x: 26.894117, y: 111.43627}
  - {x: 26.894117, y: 112.05882}
  - {x: 26.894117, y: 112.05882}
  - {x: 26.894117, y: 112.68137}
  - {x: 26.894117, y: 112.68137}
  - {x: 28.388235, y: 113.303925}
  - {x: 28.388235, y: 113.303925}
  - {x: 28.388235, y: 113.92647}
  - {x: 28.388235, y: 113.92647}
  - {x: 28.388235, y: 114.54902}
  - {x: 28.388235, y: 114.54902}
  - {x: 29.882353, y: 115.17157}
  - {x: 29.882353, y: 115.79412}
  - {x: 29.882353, y: 115.79412}
  - {x: 29.882353, y: 116.416664}
  - {x: 29.882353, y: 116.416664}
  - {x: 31.37647, y: 117.039215}
  - {x: 31.37647, y: 117.039215}
  - {x: 31.37647, y: 117.661766}
  - {x: 31.37647, y: 117.661766}
  - {x: 32.870586, y: 118.28432}
  - {x: 32.870586, y: 118.28432}
  - {x: 34.364704, y: 118.90686}
  - {x: 34.364704, y: 118.90686}
  - {x: 34.364704, y: 119.52941}
  - {x: 34.364704, y: 119.52941}
  - {x: 34.364704, y: 120.15196}
  - {x: 34.364704, y: 120.15196}
  - {x: 35.85882, y: 120.77451}
  - {x: 35.85882, y: 120.77451}
  - {x: 35.85882, y: 121.39706}
  - {x: 37.35294, y: 122.01961}
  - {x: 37.35294, y: 122.01961}
  - {x: 37.35294, y: 122.64216}
  - {x: 37.35294, y: 122.64216}
  - {x: 38.847057, y: 122.64216}
  - {x: 38.847057, y: 122.64216}
  - {x: 40.341175, y: 123.26471}
  - {x: 40.341175, y: 123.26471}
  - {x: 40.341175, y: 123.88725}
  - {x: 40.341175, y: 123.88725}
  - {x: 41.835293, y: 124.5098}
  - {x: 41.835293, y: 124.5098}
  - {x: 43.32941, y: 125.132355}
  - {x: 43.32941, y: 125.132355}
  - {x: 44.82353, y: 125.754906}
  - {x: 44.82353, y: 125.754906}
  - {x: 46.317646, y: 125.754906}
  - {x: 46.317646, y: 125.754906}
  - {x: 47.811764, y: 126.37745}
  sprite: {fileID: 21300000, guid: 76434cb47615c5548a78292b0011b236, type: 3}
  bounds: {x: 1, y: 86, z: 1, w: 205}
