%YAML 1.1
%TAG !u! tag:unity3d.com,2011:
--- !u!74 &7400000
AnimationClip:
  m_ObjectHideFlags: 0
  m_CorrespondingSourceObject: {fileID: 0}
  m_PrefabInternal: {fileID: 0}
  m_Name: Bubbles
  serializedVersion: 6
  m_Legacy: 0
  m_Compressed: 0
  m_UseHighQualityCurve: 1
  m_RotationCurves: []
  m_CompressedRotationCurves: []
  m_EulerCurves: []
  m_PositionCurves: []
  m_ScaleCurves: []
  m_FloatCurves: []
  m_PPtrCurves:
  - curve:
    - time: 0
      value: {fileID: 21300000, guid: 6b198f124da0d0041a1c4a7dc6d0a8f3, type: 3}
    - time: 0.083333336
      value: {fileID: 21300000, guid: 6a5ada4e2ce3aab4baa23d919c9a77cd, type: 3}
    - time: 0.16666667
      value: {fileID: 21300000, guid: ba834856828e2a345b47f3d9a613e49d, type: 3}
    - time: 0.25
      value: {fileID: 21300000, guid: ed3dfe85830744d4d897f60bd34978e3, type: 3}
    - time: 0.33333334
      value: {fileID: 21300000, guid: f99dbba1a1b2d5d449b6dbeb135cc958, type: 3}
    - time: 0.41666666
      value: {fileID: 21300000, guid: 508f5dc837c75ba44906139335c6c1af, type: 3}
    - time: 0.5
      value: {fileID: 21300000, guid: 7ed53ba9ef117874389296cd383167a0, type: 3}
    - time: 0.5833333
      value: {fileID: 21300000, guid: 7926584e1089eb64abd3de89d74c7f5c, type: 3}
    - time: 0.6666667
      value: {fileID: 21300000, guid: 6b198f124da0d0041a1c4a7dc6d0a8f3, type: 3}
    attribute: m_Sprite
    path: 
    classID: 212
    script: {fileID: 0}
  m_SampleRate: 60
  m_WrapMode: 0
  m_Bounds:
    m_Center: {x: 0, y: 0, z: 0}
    m_Extent: {x: 0, y: 0, z: 0}
  m_ClipBindingConstant:
    genericBindings:
    - serializedVersion: 2
      path: 0
      attribute: 0
      script: {fileID: 0}
      typeID: 212
      customType: 23
      isPPtrCurve: 1
    pptrCurveMapping:
    - {fileID: 21300000, guid: 6b198f124da0d0041a1c4a7dc6d0a8f3, type: 3}
    - {fileID: 21300000, guid: 6a5ada4e2ce3aab4baa23d919c9a77cd, type: 3}
    - {fileID: 21300000, guid: ba834856828e2a345b47f3d9a613e49d, type: 3}
    - {fileID: 21300000, guid: ed3dfe85830744d4d897f60bd34978e3, type: 3}
    - {fileID: 21300000, guid: f99dbba1a1b2d5d449b6dbeb135cc958, type: 3}
    - {fileID: 21300000, guid: 508f5dc837c75ba44906139335c6c1af, type: 3}
    - {fileID: 21300000, guid: 7ed53ba9ef117874389296cd383167a0, type: 3}
    - {fileID: 21300000, guid: 7926584e1089eb64abd3de89d74c7f5c, type: 3}
    - {fileID: 21300000, guid: 6b198f124da0d0041a1c4a7dc6d0a8f3, type: 3}
  m_AnimationClipSettings:
    serializedVersion: 2
    m_AdditiveReferencePoseClip: {fileID: 0}
    m_AdditiveReferencePoseTime: 0
    m_StartTime: 0
    m_StopTime: 0.68333334
    m_OrientationOffsetY: 0
    m_Level: 0
    m_CycleOffset: 0
    m_HasAdditiveReferencePose: 0
    m_LoopTime: 1
    m_LoopBlend: 0
    m_LoopBlendOrientation: 0
    m_LoopBlendPositionY: 0
    m_LoopBlendPositionXZ: 0
    m_KeepOriginalOrientation: 0
    m_KeepOriginalPositionY: 1
    m_KeepOriginalPositionXZ: 0
    m_HeightFromFeet: 0
    m_Mirror: 0
  m_EditorCurves: []
  m_EulerEditorCurves: []
  m_HasGenericRootTransform: 0
  m_HasMotionFloatCurves: 0
  m_GenerateMotionCurves: 0
  m_Events: []
