%YAML 1.1
%TAG !u! tag:unity3d.com,2011:
--- !u!114 &11400000
MonoBehaviour:
  m_ObjectHideFlags: 0
  m_CorrespondingSourceObject: {fileID: 0}
  m_PrefabInternal: {fileID: 0}
  m_GameObject: {fileID: 0}
  m_Enabled: 1
  m_EditorHideFlags: 0
  m_Script: {fileID: 11500000, guid: 2ca0c998460948b4cb85112b9ddfd68d, type: 3}
  m_Name: Data2
  m_EditorClassIdentifier: 
  stamp: 443
  confirm: 443
  valuesNames:
  - GameController.numMerges
  - GameController.doubleEarnings
  - TutorialPassed
  - TutorialStep
  - IsFloorAvaliable0
  - IsFloorAvaliable1
  - IsFloorAvaliable2
  - IsFloorAvaliable3
  - DancersShop.lastAvaliable
  - DancersShop.toBuy
  - DancersShop.lastDiscovered
  - DancersShop.NumBuyed0
  - DancersShop.NumBuyed1
  - DancersShop.NumBuyed2
  - DancersShop.NumBuyed3
  - DancersShop.NumBuyed4
  - DancersShop.NumBuyed5
  - DancersShop.NumBuyed6
  - DancersShop.NumBuyed7
  - DancersShop.NumBuyed8
  - DancersShop.NumBuyed9
  - DancersShop.NumBuyed10
  - DancersShop.NumBuyed11
  - DancersShop.NumBuyed12
  - DancersShop.NumBuyed13
  - DancersShop.NumBuyed14
  - DancersShop.NumBuyed15
  - DancersShop.NumBuyed16
  - DancersShop.NumBuyed17
  - DancersShop.NumBuyed18
  - DancersShop.NumBuyed19
  - DancersShop.NumBuyed20
  - DancersShop.NumBuyed21
  - DancersShop.NumBuyed22
  - DancersShop.NumBuyed23
  - DancersShop.NumBuyed24
  - DancersShop.Marked0
  - DancersShop.Marked1
  - DancersShop.Marked2
  - DancersShop.Marked3
  - DancersShop.Marked4
  - DancersShop.MarkedCount
  - ElevatorTimeUpgrades
  - DanceCardChanceUpgrades
  - DanceCardChanceUpgrades.ShowSign
  - IsDanceCardUpgradeAvaliable
  - Wallet_coins_CoinsBalance
  - MergesToRewardUpgrades
  - Wallet_crystals_CrystalsBalance
  - ElevatorDancerUpgrades
  - ClubWorkingTimeUpgrades
  - IsInBattle
  - EndOfBattle
  - PlayerDanceID
  - OpponentDanceID
  - OfflineEarnings
  values:
  - '{"field":8}'
  - '{"field":false}'
  - '{"field":true}'
  - '{"field":11}'
  - '{"field":true}'
  - '{"field":true}'
  - '{"field":true}'
  - '{"field":true}'
  - '{"field":22}'
  - '{"field":20}'
  - '{"field":23}'
  - '{"field":3}'
  - '{"field":2}'
  - '{"field":9}'
  - '{"field":5}'
  - '{"field":5}'
  - '{"field":2}'
  - '{"field":14}'
  - '{"field":0}'
  - '{"field":12}'
  - '{"field":0}'
  - '{"field":6}'
  - '{"field":3}'
  - '{"field":10}'
  - '{"field":9}'
  - '{"field":0}'
  - '{"field":4}'
  - '{"field":3}'
  - '{"field":11}'
  - '{"field":4}'
  - '{"field":4}'
  - '{"field":4}'
  - '{"field":0}'
  - '{"field":0}'
  - '{"field":0}'
  - '{"field":0}'
  - '{"field":7}'
  - '{"field":9}'
  - '{"field":14}'
  - '{"field":21}'
  - '{"field":22}'
  - '{"field":5}'
  - '{"field":0}'
  - '{"field":6}'
  - '{"field":false}'
  - '{"field":true}'
  - '{"field":"23237181618269"}'
  - '{"field":0}'
  - '{"field":"539"}'
  - '{"field":0}'
  - '{"field":5}'
  - '{"field":false}'
  - '{"field":"1/1/0001 12:00:00 AM"}'
  - '{"field":0}'
  - '{"field":0}'
  - '{"field":"0"}'
  arraysNames:
  - DanceFloor.dancers
  - Dance4CardState
  - Dance0CardState
  - Dance1CardState
  - Dance2CardState
  - Dance3CardState
  arrays:
  - keys:
    - element0
    - element1
    - element2
    - element3
    - element4
    - element5
    - element6
    - element7
    - element8
    - element9
    - element10
    - element11
    values:
    - '{"floor":0,"type":0,"position":{"x":-1.3121230602264405,"y":-0.3902721405029297},"active":true,"buyed":false}'
    - '{"floor":0,"type":4,"position":{"x":0.9810714721679688,"y":-2.3731393814086916},"active":true,"buyed":false}'
    - '{"floor":0,"type":5,"position":{"x":-0.5908799171447754,"y":-2.076854705810547},"active":true,"buyed":false}'
    - '{"floor":0,"type":5,"position":{"x":0.4167732894420624,"y":-2.032663345336914},"active":true,"buyed":false}'
    - '{"floor":0,"type":5,"position":{"x":-0.7457275390625,"y":0.4070475101470947},"active":true,"buyed":false}'
    - '{"floor":0,"type":2,"position":{"x":0.033910319209098819,"y":-2.0080230236053469},"active":true,"buyed":false}'
    - '{"floor":0,"type":0,"position":{"x":-1.4744571447372437,"y":-0.07097220420837403},"active":false,"buyed":false}'
    - '{"floor":0,"type":0,"position":{"x":-0.31683167815208437,"y":0.6314514875411987},"active":false,"buyed":false}'
    - '{"floor":2,"type":16,"position":{"x":-1.0777201652526856,"y":19.70758628845215},"active":true,"buyed":false}'
    - '{"floor":3,"type":18,"position":{"x":0.01773238182067871,"y":28.763648986816408},"active":true,"buyed":false}'
    - '{"floor":3,"type":19,"position":{"x":-0.36475563049316409,"y":27.96056365966797},"active":true,"buyed":false}'
    - '{"floor":3,"type":23,"position":{"x":-0.45822954177856448,"y":28.561264038085939},"active":true,"buyed":false}'
  - keys:
    - element0
    - element1
    - element2
    values:
    - '{"field":false}'
    - '{"field":false}'
    - '{"field":false}'
  - keys:
    - element0
    - element1
    - element2
    - element3
    - element4
    values:
    - '{"field":false}'
    - '{"field":false}'
    - '{"field":false}'
    - '{"field":false}'
    - '{"field":false}'
  - keys:
    - element0
    - element1
    - element2
    - element3
    - element4
    - element5
    - element6
    - element7
    values:
    - '{"field":false}'
    - '{"field":false}'
    - '{"field":false}'
    - '{"field":false}'
    - '{"field":false}'
    - '{"field":false}'
    - '{"field":false}'
    - '{"field":false}'
  - keys:
    - element0
    - element1
    - element2
    - element3
    - element4
    - element5
    - element6
    - element7
    - element8
    - element9
    values:
    - '{"field":false}'
    - '{"field":false}'
    - '{"field":false}'
    - '{"field":false}'
    - '{"field":false}'
    - '{"field":false}'
    - '{"field":false}'
    - '{"field":false}'
    - '{"field":false}'
    - '{"field":false}'
  - keys:
    - element0
    - element1
    - element2
    values:
    - '{"field":true}'
    - '{"field":false}'
    - '{"field":false}'
